<svg xmlns="http://www.w3.org/2000/svg" width="13.827" height="13.827" viewBox="0 0 13.827 13.827">
  <path id="Path_117" data-name="Path 117" d="M19.827,10.99A5.035,5.035,0,0,0,19.111,8.4L17.854,6.3a.629.629,0,0,0-.541-.3h-8.8a.629.629,0,0,0-.539.3L6.718,8.4A5.036,5.036,0,0,0,6,10.99v.262a2.314,2.314,0,0,0,1.257,2.063v4.626a1.886,1.886,0,0,0,1.886,1.886h7.542a1.886,1.886,0,0,0,1.886-1.886V13.316a2.314,2.314,0,0,0,1.257-2.063Zm-3.143,7.58H15.428V15.428A.629.629,0,0,0,14.8,14.8H11.028a.629.629,0,0,0-.629.629V18.57H9.143a.629.629,0,0,1-.629-.629V13.512a2.2,2.2,0,0,0,1.161-.539c.033-.03.066-.061.1-.093a2.2,2.2,0,0,0,3.111.032l.032-.032a2.2,2.2,0,0,0,3.111.032l.032-.032c.03.031.063.063.1.093a2.2,2.2,0,0,0,1.161.539v4.429A.629.629,0,0,1,16.685,18.57Z" transform="translate(-6 -6)" fill="#4f534c"/>
</svg>
