<svg xmlns="http://www.w3.org/2000/svg" width="14" height="13.767" viewBox="0 0 14 13.767">
  <path id="Path_70" data-name="Path 70" d="M16.709,18.682H13.273A1.276,1.276,0,0,1,12,17.409V13.973A1.276,1.276,0,0,1,13.273,12.7H16.73A1.276,1.276,0,0,1,18,13.973V17.43A1.291,1.291,0,0,1,16.709,18.682Zm8,0H21.248a1.276,1.276,0,0,1-1.273-1.273V13.973A1.276,1.276,0,0,1,21.248,12.7h3.458a1.276,1.276,0,0,1,1.273,1.273V17.43A1.258,1.258,0,0,1,24.706,18.682Zm-7.955,7.785H13.294a1.276,1.276,0,0,1-1.273-1.273V21.758a1.276,1.276,0,0,1,1.273-1.273h3.458a1.276,1.276,0,0,1,1.273,1.273v3.458A1.3,1.3,0,0,1,16.752,26.467Zm7.976,0H21.291a1.276,1.276,0,0,1-1.273-1.273V21.758a1.276,1.276,0,0,1,1.273-1.273h3.436A1.276,1.276,0,0,1,26,21.758v3.458A1.272,1.272,0,0,1,24.727,26.467Z" transform="translate(-12 -12.7)" fill="#4f534c"/>
</svg>
